// Jest Snapshot v1, https://goo.gl/fbAQLP

exports[`<WidgetViewRow /> Enzyme Static HTML <WidgetViewRow /> renders 1`] = `"\\"<tbody><tr><td>1</td><td>Test Widget</td><td>Test Widget Description</td><td>red</td><td>small</td><td>10</td><td>20</td><td><button type=\\\\\\"button\\\\\\">Edit</button><button type=\\\\\\"button\\\\\\">Delete</button></td></tr></tbody>\\""`;
